-------------------------------------------------------------------------------
Test set: com.miniproject.bookshelf.controller.book.BookControllerTest
-------------------------------------------------------------------------------
Tests run: 5, Failures: 0, Errors: 0, Skipped: 0, Time elapsed: 0.2 s - in com.miniproject.bookshelf.controller.book.BookControllerTest
